A;B;C;D;E;F;G;H;I;J
1;2;1;;;Lorem ipsum dolor sit amet, consectetur adipiscing elit. Nullam a porta urna.;Proin turpis ipsum, cursus sed arcu ut, feugiat scelerisque odio.;1;23/06/2016;1
1;3;0;Bill Duck;bill@bill.com;Quisque non nunc venenatis, pretium tellus vel, lobortis ipsum. Vestibulum eu tellus nisi. ;;0;03/06/2016;1
1;4;0;John Doe;john@doe.com;Quisque at tortor justo. Aliquam odio sapien, fermentum vitae venenatis id, vehicula id libero. ;In hac habitasse platea dictumst. ;1;12/06/2016;1
